{
    "database.user": null, 
    "database.password": null,
    "database.host": null,
    "database.port": null,
    "enable_python_native_blobs": true, 
    "folderpath": null,
    "plotpath": null,
    "connection.charset": "utf8"
}