Cell type,Indentifier,Synapsis Me,Synapsis Lo
720575940628230417,Mti_M6,22,0
720575940638458173,LC6,0,20
720575940655546017,LC6,0,19
720575940620200021,Tm5b,8,5
720575940623904136,Mi3,9,0
720575940628838474,CB0171,8,0
720575940614344429,Mti_M6,7,0
720575940631148428,Li2,0,6
720575940626264201,unknown,6,0
720575940612227441,LC6,0,6
720575940643962903,Tm5b,4,1
720575940622540894,Mti_M6_narrow,5,0
720575940626012208,Mi10,5,0
720575940660846721,Tm5b,5,0
720575940634254562,Pm4,5,0
720575940593785522,unknown,5,0
720575940591584450,unknown,0,5
720575940639893301,Mti_M6,5,0