wls,rh3,rh4,rh5,rh6
300,0.530218903669544,0.08359815341992458,0.002133114656621315,1.488122762923486e-05
301,0.5489870830611004,0.08868431413315006,0.002299170996563072,1.6308356402258865e-05
302,0.5678604708848664,0.09402253723738623,0.0024769029133468587,1.786151124602501e-05
303,0.5868057470320919,0.09962089345189384,0.002667038334047328,1.955083844436515e-05
304,0.605788569522599,0.10548735328043557,0.0028703441940353246,2.1387219228397446e-05
305,0.62477367089123,0.11162975006991555,0.0030876281167318016,2.33823167926022e-05
306,0.6437249509312235,0.1180557408235558,0.003319740139250498,2.554862589333275e-05
307,0.6626055640876596,0.12477276485537428,0.0035675744832082907,2.7899525145752308e-05
308,0.6813779999283134,0.13178800040277433,0.0038320713697603376,3.0449332139007157e-05
309,0.7000041552931427,0.1391083193459562,0.004114218877673851,3.321336149333948e-05
310,0.7184453969333002,0.1467402402162145,0.004415054842990425,3.620798598677693e-05
311,0.7366626136912466,0.1546898797096485,0.0047356687985388056,3.9450700883038744e-05
312,0.7546162575397463,0.16296290295788105,0.005077203951247727,4.2960191596340575e-05
313,0.7722663730832194,0.17156447284251322,0.005440859194870532,4.6756404832882045e-05
314,0.7895726154238627,0.18049919867459915,0.005827891155367772,5.086062335293578e-05
315,0.8064942566005409,0.18977108459369063,0.006239616265799809,5.529554450164117e-05
316,0.8229901811143296,0.19938347807225243,0.006677412867157324,6.0085362660825956e-05
317,0.839018871354363,0.20933901893961016,0.007142723331102262,6.525585577842253e-05
318,0.8545383840255123,0.2196395893642651,0.007637056200102856,7.08344761363294e-05
319,0.8695063189498186,0.23028626525351598,0.00816198833992507,7.685044552186366e-05
320,0.8838797818618793,0.24127926954397833,0.00871916709888401,8.333485497225978e-05
321,0.897615343040581,0.25261792786501863,0.009310312467666605,9.032076926600329e-05
322,0.9106689938131499,0.2643006270585036,0.009937219232904868,9.784333633910155e-05
323,0.922996103131042,0.27632477703193936,0.010601759117011458,0.0001059399018087266
324,0.9345513765516882,0.28868677640752033,0.011305882896081094,0.00011465012879095508
325,0.9452888200686211,0.3013819824063123,0.01205162248691667,0.00012401612320364305
326,0.9551617113215262,0.3144046853746306,0.012841092993452973,0.00013408256474969413
327,0.9641225807975818,0.32774808831850255,0.013676494702029593,0.00014489684378022193
328,0.9721232057212085,0.3414042917621546,0.014560115014101791,0.00015650920424125373
329,0.9791146194419365,0.35536428418809846,0.015494330304082158,0.00016897289291172406
330,0.985047139296798,0.36961793825032896,0.016481607689072492,0.0001823443151445301
331,0.9898704161790428,0.3841540128791616,0.01752450669628002,0.00019668319732635365
332,0.9935335094308108,0.398960161317622,0.018625680812916358,0.0002120527562757815
333,0.9959849912421027,0.41402294504619314,0.019787878902356473,0.0002285198758029601
334,0.9971730855355118,0.4293278534668931,0.021013946469287635,0.0002461552906576124
335,0.9970458474005752,0.44485932913061693,0.022306826755519777,0.00026503377809563124
336,0.995551390564266,0.46060079820536237,0.02366956164705255,0.00028523435729774525
337,0.9926381721831077,0.4765347057992759,0.02510529237191843,0.0003068404968767823
338,0.98825534643069,0.49264255567326554,0.026617259967245923,0.0003299403307128914
339,0.982353200902975,0.5089049538052405,0.02820880549292636,0.0003546268823586957
340,0.9748836926802258,0.5253016552036354,0.029883369968229788,0.0003809982982586617
341,0.965801103785909,0.5418116133134224,0.0316444940067115,0.000409158090029031
342,0.955062838466584,0.5584130313149558,0.03349581712379643,0.000439215386046345
343,0.9426303867276421,0.575083414585906,0.03544107669053468,0.0004712851925940167
344,0.9284704792630845,0.591799623580332,0.037484106506205504,0.0005054886648173111
345,0.9125564574829362,0.6085379263774485,0.039628834961730496,0.0005419533877377159
346,0.8948698777503602,0.6252740501661556,0.04187928276524431,0.0005808136675777667
347,0.8754023600325939,0.641983230960314,0.044239560200705866,0.0006222108336469809
348,0.8541576767519516,0.6586402608837391,0.046713863890110716,0.0006662935510386315
349,0.8311540566537876,0.6752195324226115,0.04930647302972778,0.0007132181443855733
350,0.8064266503779085,0.6916950791157902,0.052021745070846684,0.0007631489329211507
351,0.7800300693219666,0.7080406122393353,0.05486411081581074,0.0008162585770883567
352,0.7520408687513814,0.7242295531393586,0.05783806890065105,0.0008727284369368928
353,0.7225598030356114,0.7402350609756666,0.060948179636455796,0.0009327489425432487
354,0.6917136404269678,0.7560300557562175,0.06419905818273895,0.0009965199766837913
355,0.6596562939429915,0.7715872366674095,0.06759536702751871,0.001064251269984612
356,0.6265690121058842,0.7868790958361088,0.0711418077506381,0.0011361628087646375
357,0.5926593872650348,0.8018779277942946,0.0748431120490463,0.0012124852557803076
358,0.5581589872018318,0.816555835054436,0.07870403200536612,0.0012934603840706904
359,0.5233195011368119,0.8308847303413847,0.08272932958409288,0.0013793415240912071
360,0.48840741157336165,0.8448363361627482,0.08692376534324367,0.0014703940243122192
361,0.45369734858723687,0.8583821825323887,0.0912920863532076,0.0015668957254452351
362,0.4194644357428562,0.8714936037889035,0.09583901331894924,0.0016691374484447288
363,0.3859760739861141,0.8841417355704351,0.10056922690659213,0.0017774234964168065
364,0.3534837076007749,0.8962975131166879,0.10548735328077229,0.0018920721705479946
365,0.32221515468492845,0.9079316721661878,0.11059794886497751,0.0020134163001470184
366,0.2923680528765487,0.9190147537989977,0.11590548434336037,0.002141803786870592
367,0.2641048709908978,0.9295171146395376,0.12141432792925295,0.0022775981631801574
368,0.2375497833162041,0.939408943877938,0.12712872793271318,0.002421179165049837
369,0.21278751972734658,0.9486602885885342,0.13305279466693265,0.0025729433189176126
370,0.18986411992853264,0.9572410888174466,0.13919048174113388,0.002733304542840267
371,0.16878936043480017,0.9651212238747837,0.14554556679563044,0.0029026947617788288
372,0.1495405075790862,0.97227057119787,0.1521216317429571,0.003081564536904958
373,0.13206698809679782,0.9786590790474761,0.1589220425873142,0.003270383708778584
374,0.11629555977824596,0.9842568541572727,0.16594992890288077,0.003469642054205211
375,0.10213559939381638,0.9890342652763836,0.17320816305979148,0.003679849956534697
376,0.0894841900733546,0.9929620633256586,0.1806993392945853,0.00390153908911432
377,0.07823077090549609,0.996011518631234,0.18842575272958612,0.004135263111555862
378,0.06826119467591674,0.9981545754067029,0.19638937845288834,0.004381598378419527
379,0.05946111559955225,0.999364023332256,0.2045918507772086,0.004641144659856864
380,0.051718691616227885,0.9996136857320367,0.21303444280168843,0.004914525873689793
381,0.044926632777317364,0.998878623488326,0.22171804640570078,0.005202390828333455
382,0.038983658597690325,0.9971353534639265,0.2306431528075975,0.005505413975896672
383,0.03379544486500137,0.994362079845108,0.2398098338240952,0.005824296174715217
384,0.029275147044376088,0.9905389364811782,0.24921772396740102,0.006159765460489561
385,0.025343586056546415,0.9856482379987764,0.2588660035171933,0.006512577825109652
386,0.021929175579211452,0.9796747372250975,0.2687533827030297,0.006883518002155646
387,0.018967660401745922,0.9726058862794267,0.27887808712956447,0.0072734002579637694
388,0.016401724489950524,0.9644320985993173,0.2892378445721134,0.007683069187041214
389,0.014180516510280293,0.9551470091655984,0.29982987326343563,0.0081134005105029
390,0.012259130399701335,0.9447477302827518,0.3106508717842249,0.008565301876086428
391,0.010598069579445736,0.9332351004548245,0.3216970106596012,0.00903971365817708
392,0.009162715778528457,0.9206139241598147,0.3329639257519993,0.009537609756147454
393,0.007922817166786344,0.9068932006457324,0.3444467135272415,0.01005999838917823
394,0.0068520055046594345,0.8920863402164071,0.3561399282554842,0.010607922885586022
395,0.005927348150035807,0.876211366801597,0.36803758119209407,0.01118246246453538
396,0.005128937851657758,0.859291105860392,0.3801331417657479,0.011784733007856225
397,0.004439521134292375,0.8413533567884116,0.39241954078211505,0.01241588781952694
398,0.003844164586176772,0.822431048922401,0.404889175631796,0.013077118370215926
399,0.003329957356253696,0.8025623798957636,0.417533917470921,0.013769655024098026
400,0.002885747540734066,0.7817909344385519,0.4303451203222335,0.01449476774498397
401,0.0025019097897477824,0.7601657806943577,0.4433136320239476,0.015253766778613244
402,0.0021701413185103,0.7377415397296869,0.4564298069334597,0.01604800330776833
403,0.0018832835034099408,0.7145784221601136,0.46968352027340166,0.01687887007667058
404,0.001635166335524571,0.6907422237809058,0.48306418398894446,0.017747801980916487
405,0.0014204731575480731,0.6663042698922769,0.4965607639679453,0.01865627661900263
406,0.00123462329932589,0.6413412958380988,0.5101617984598203,0.01960581480128063
407,0.0010736704336960637,0.6159352493797537,0.523855417515207,0.020597981011963543
408,0.0009342146851625409,0.5901729992069148,0.5376293632568383,0.021634383819592748
409,0.0008133267303207438,0.5641459334824186,0.5514710107827816,0.022716676231150524
410,0.0007084823252514043,0.5379494331742162,0.5653673894965716,0.02384655598478812
411,0.0006175058779139506,0.5116822073530461,0.5793052046549456,0.025025765775914314
412,0.0005385218511518573,0.4854454818537276,0.5932708589229693,0.026256093411175244
413,0.00046991293365373897,0.45934203879308944,0.6072504737284593,0.027539371884639036
414,0.00041028405225661415,0.43347511229673547,0.6212299102128646,0.02887747937028694
415,0.00035843141999210385,0.40794715506731233,0.6351947895840558,0.030272339124707857
416,0.0003133159212283329,0.382858500538953,0.6491305126878814,0.031725919293695934
417,0.00027404022928216836,0.3583059554939206,0.6630222786297678,0.03324023261626128
418,0.00023982913416480638,0.33438136719263717,0.6768551022949908,0.03481733601938809
419,0.00021001262987710353,0.3111702162529861,0.6906138306363151,0.03645933009671263
420,0.00018401137304438608,0.2887502907451706,0.704283157620483,0.038168358464144965
421,0.0001613241787582193,0.26719049749577173,0.7178476377501511,0.039946606985332415
422,0.00014151726627596064,0.24654986301309767,0.731291698105275,0.041796302859757516
423,0.00012421500762706887,0.22687676878419152,0.7445996488772618,0.043719713566179146
424,0.0001090919670057876,0.20820845444331154,0.7577556924003348,0.04571914565407387
425,9.586604882178533e-05,0.1905708083867256,0.7707439307170723,0.04779694337571093
426,8.429259807824331e-05,0.1739784500362534,0.7835483717488116,0.04995548715150291
427,7.415931891765942e-05,0.1584350925149905,0.7961529341763032,0.052197191861325036
428,6.528189621594495e-05,0.14393416034684534,0.8085414511711801,0.05452450495458415
429,5.750022144774837e-05,0.1304596250813192,0.8206976731543829,0.056939904371947646
430,5.067513806661919e-05,0.11798701330096703,0.832605269793182,0.059445896271831764
431,4.468563366839163e-05,0.10648453671096146,0.844247831483551,0.062045012554973
432,3.94264165167806e-05,0.09591429294616252,0.8556088705990298,0.06473980818070237
433,3.480582284968284e-05,0.08623348800635264,0.8666718228204848,0.06753285826888118
434,3.0744008962430186e-05,0.07739563622046182,0.8774200488928525,0.07042675498187803
435,2.7171388560298992e-05,0.0693517005642432,0.8878368371846261,0.07342410418142575
436,2.4027281441662675e-05,0.06205114418835498,0.8979054074530084,0.07652752185575723
437,2.1258744348092e-05,0.05544287238305702,0.907608916241736,0.07973963031302217
438,1.8819558912289094e-05,0.049476052262260276,0.9169304643589571,0.0830630541376854
439,1.666935514666626e-05,0.044100804705262044,0.9258531068986381,0.08650041590736444
440,1.4772851928228775e-05,0.03926876923317519,0.9343598662799134,0.0900543316684179
441,1.3099198520799105e-05,0.034933547363924074,0.9424337487840154,0.09372740616951031
442,1.1621403394858808e-05,0.031051033564454943,0.9500577650668621,0.09752222785339262
443,1.0315838510819017e-05,0.02757964528301094,0.9572149551163999,0.10144136360820732
444,9.161808868288132e-06,0.024480464846400943,0.9638884181063474,0.10548735328080754
445,8.141178530303854e-06,0.021717306431757927,0.9700613475712611,0.10966270395580197
446,7.238045540419314e-06,0.019256721064485352,0.9757170722909161,0.1139698840053655
447,6.438459190122433e-06,0.017067951841243798,0.9808391032240962,0.11841131691623695
448,5.730173988423614e-06,0.015122850496065342,0.9854111867722175,0.12298937490178112
449,5.102435455169079e-06,0.013395765159689923,0.9894173645812331,0.12770637230850607
450,4.5457935224022015e-06,0.011863407818889922,0.9928420400055474,0.13256455882800344
451,4.051939899014178e-06,0.010504708648073338,0.9956700512600133,0.1375661125268913
452,3.6135662459462432e-06,0.009300663119120712,0.9978867511756823,0.1427131327090017
453,3.2242404334435556e-06,0.008234176635406884,0.9994780933522578,0.14800763262573327
454,2.8782985178092507e-06,0.007289910403692081,1.0004307243661241,0.15345153205219123
455,2.5707503909414765e-06,0.006454131361454549,1.0007320815487253,0.15904664974844857
456,2.2971973286397198e-06,0.00571456821649116,1.0003704956979005,0.16479469582694273
457,2.053759899251936e-06,0.005060275023047122,0.9993352979269398,0.17069726404869698
458,1.8370148978475682e-06,0.0044815032033448405,0.9976169296956616,0.17675582407268328
459,1.6439401471744455e-06,0.003969582512037155,0.9952070549082862,0.18297171368420456
460,1.4718661589868183e-06,0.0035168111200323832,0.9920986728083591,0.1893461310296612
461,1.3184337811868015e-06,0.0031163547497322446,0.9882862302560658,0.19588012688647413
462,1.18155707041267e-06,0.002762154613259011,0.9837657318428346,0.2025745969981958
463,1.0593907286471419e-06,0.002448843777153188,0.978534846187332,0.20943027450599547
464,9.50301528191779e-07,0.002171671491104748,0.9725930066710209,0.21644772250869942
465,8.528432237456425e-07,0.0019264349657156503,0.965941504815463,0.22362732678436023
466,7.657345148826121e-07,0.0017094180576206247,0.9585835744822615,0.23096928870698166
467,6.878396782700938e-07,0.001517336313292296,0.9505244650941322,0.2384736183924027
468,6.181515376575225e-07,0.0013472878304241662,0.9417715021353695,0.2461401281075597
469,5.557764819759687e-07,0.0011967094138002057,0.9323341332943207,0.2539684259772466
470,4.999212786815544e-07,0.0010633375277365007,0.9222239587602683,0.26195791002220187
471,4.498814614827995e-07,0.000945173576948599,0.9114547443820643,0.27010776256173175
472,4.050310994511229e-07,0.0008404530800692827,0.9000424166337451,0.2784169450132003
473,3.6481377877440664e-07,0.0007476183335148751,0.8880050386096717,0.2868841931195721
474,3.287346495509923e-07,0.0006652941968593697,0.8753627665829321,0.29550801263468124
475,2.9635340844715764e-07,0.0005922666635252337,0.8621377869990369,0.3042866754941876
476,2.67278104110838e-07,0.0005274639118804525,0.8483542341339014,0.3132182164980691
477,2.4115966625611913e-07,0.00046993956138048523,0.8340380890112927,0.3223004305281954
478,2.1768707157415596e-07,0.0004188578859925202,0.8192170605399799,0.33153087032183476
479,1.9658307031782584e-07,0.00037348076268118045,0.8039204501840511,0.34090684481910055
480,1.7760040675034302e-07,0.0003331561561939561,0.7881790018103852,0.35042541809911937
481,1.6051847481651184e-07,0.00029730796279428724,0.7720247386548337,0.36008340891634844
482,1.451403575401922e-07,0.00026542705502555084,0.7554907896037067,0.36987739084483184
483,1.3129020490426332e-07,0.00023706338715101026,0.738611207191498,0.3798036930344024
484,1.1881091044402652e-07,0.00021181903672278334,0.721420779862797,0.3898584015788785
485,1.0756205158053922e-07,0.00018934207191323755,0.7039548411313661,0.4000373614922279
486,9.74180629231613e-08,0.00016932114692664945,0.6862490782897885,0.4103361792845415
487,8.826661545568832e-08,0.00015148073912573965,0.668339343278479,0.4207502261254133
488,8.000717775299065e-08,0.000135576951582852,0.6502614682150238,0.4312746415781786
489,7.254973821217745e-08,0.00012139381371776398,0.6320510879174989,0.4419043378842319
490,6.581366977330704e-08,0.00010874002062564464,0.6137434715343568,0.45263400477262344
491,5.972672079297879e-08,9.744605873327512e-05,0.5953733651258749,0.46345811476613297
492,5.422411765734115e-08,8.736167164512062e-05,0.5769748467366422,0.47437092895127037
493,4.9247766412049133e-08,7.835362554082319e-05,0.5585811951644774,0.4853665031760508
494,4.4745542174255445e-08,7.030373834144759e-05,0.5402247732786093,0.4964386946361213
495,4.0670656400871256e-08,6.310714114565456e-05,0.5219369263791146,0.5075811688067662
496,3.698109323999813e-08,5.6670744213311546e-05,0.5037478957305743,0.5187874066756789
497,3.3639107207808236e-08,5.091188310129922e-05,0.4856867470553744,0.5300507122290535
498,3.061077532795383e-08,4.575712348613448e-05,0.46778131344523094,0.5413642201417147
499,2.7865597659516807e-08,4.1141205787095214e-05,0.45005815185143583,0.5527209036204632
500,2.5376140835395155e-08,3.700611297284658e-05,0.432542512052495,0.5641135823489212
501,2.3117719847093793e-08,3.33002469309161e-05,0.4152583167784988,0.5755349304815544
502,2.1068113854034045e-08,2.997770053508867e-05,0.39822815149979723,0.5869774846346063
503,1.920731227432088e-08,2.699761408975202e-05,0.3814732622675026,0.5984336518221427
504,1.7517287837010055e-08,2.4323606187687073e-05,0.36501355992774637,0.6098957172864202
505,1.59817936499324e-08,2.19232702113429e-05,0.3488676290219557,0.6213558521733661
506,1.4586181667917033e-08,1.976772875690309e-05,0.33305273973206206,0.6328061210059711
507,1.3317240238905098e-08,1.7831239182976403e-05,0.31758486133110164,0.6442384889109957
508,1.2163048664487919e-08,1.6090844296836363e-05,0.30247867575356774,0.6556448285574654
509,1.1112846940792633e-08,1.4526062904298804e-05,0.28774759010169415,0.6670169267689764
510,1.015691904884274e-08,1.3118615576473859e-05,0.2734037471476098,0.6783464907758924
511,9.286488343618891e-09,1.1852181538175825e-05,0.2594580331692274,0.6896251540779721
512,8.49362375072713e-09,1.0712183067931679e-05,0.24592008276037952,0.7008444818928903
513,7.771155621211026e-09,9.685594226336808e-06,0.23279828057206153,0.7119959761713985
514,7.112600220733953e-09,8.76077110507357e-06,0.22009976025928013,0.7230710801655676
515,6.512091940923652e-09,7.927301119435366e-06,0.20783040121372892,0.7340611825425175
516,5.96432241976211e-09,7.175869158170137e-06,0.1959948239424967,0.7449576210423933
517,5.464485845937742e-09,6.498138660646203e-06,0.184596385193904,0.7557516856858537
518,5.008229800321835e-09,5.886645916987153e-06,0.17363717412075555,0.7664346215431835
519,4.591611057308142e-09,5.3347060855913695e-06,0.16311801089825867,0.776997631084098
520,4.211055830642566e-09,4.836329597610498e-06,0.153038449270404,0.7874318761344369
521,3.863324003443933e-09,4.386147772352703e-06,0.1433967844799991,0.7977284794732085
522,3.545476931146653e-09,3.9793466036968116e-06,0.1341900679428743,0.8078785261107275
523,3.2548484497607857e-09,3.611607797660815e-06,0.1254141298591834,0.817873064295926
524,2.9890187607472972e-09,3.279056247179482e-06,0.1170636107215931,0.8277031063082388
525,2.7457908984801315e-09,2.9782132236175056e-06,0.10913200239269825,0.837359629096664
526,2.5231695171828706e-09,2.705954647053588e-06,0.10161169909663095,0.8468335748357333
527,2.319341761803416e-09,2.459473870235413e-06,0.09449405831939138,0.8561158514750631
528,2.1326600118974686e-09,2.2362484754674475e-06,0.08776947125696892,0.8651973333658274
529,1.9616263095571476e-09,2.0340106405680025e-06,0.08142744210793339,0.8740688620539239
530,1.8048783020352909e-09,1.8507206803041451e-06,0.07545667519497545,0.8827212473356377
531,1.661176547240407e-09,1.684543414166998e-06,0.069845168632434,0.8911452686771832
532,1.529393045935492e-09,1.5338270506698789e-06,0.06458031304598771,0.8993316771046469
533,1.4085008784744536e-09,1.3970843131444753e-06,0.05964899370412664,0.9072711976752855
534,1.2975648364304974e-09,1.272975562807125e-06,0.05503769434267055,0.9149545326450054
535,1.1957329506722012e-09,1.1602937021363267e-06,0.050732600953195824,0.922372365449803
536,1.10222882746884e-09,1.057950665757178e-06,0.04671970385987008,0.9295153656211383
537,1.0163447131824388e-09,9.649653274308482e-07,0.04298489651979095,0.9363741947562972
538,9.374352161434328e-10,8.804526707192695e-07,0.03951406964002038,0.9429395136648433
539,8.649116215100237e-10,8.03614087716517e-07,0.03629319939907026,0.9492019908110088
540,7.982367413675202e-10,7.337286851610918e-07,0.03330842877990416,0.9551523121693151
541,7.369202481122189e-10,6.701454904831149e-07,0.030546141253897954,0.9607811926065902
542,6.805144443570034e-10,6.122764620945279e-07,0.027993026289801555,0.966079388897887
543,6.286104272540731e-10,5.595902186665496e-07,0.02563613638892814,0.9710377144763188
544,5.808346093116859e-10,5.116064114098177e-07,0.02346293555965986,0.9756470560075253
545,5.36845561536414e-10,4.6789067161081657e-07,0.021461339334773465,0.9798983918681902
546,4.963311481045144e-10,4.280500730012861e-07,0.019619746599882616,0.9837828125946296
547,4.5900592479597533e-10,3.9172905504986757e-07,0.017927063638016095,0.9872915433519601
548,4.246087761484106e-10,3.586057590578603e-07,0.01637272090325993,0.9904159684565981
549,3.9290076873644183e-10,3.283887340965399e-07,0.014946683116032087,0.9931476579648364
550,3.6366320018485047e-10,3.0081397441226594e-07,0.013639453325631233,0.9954783963180366
551,3.366958255053546e-10,2.7564225401269255e-07,0.012442071614667325,0.997400213010515
552,3.118152441303997e-10,2.5265672778767206e-07,0.011346109127849667,0.998905415219705
553,2.8885343262328965e-10,2.3166077176306836e-07,0.010343658097659175,0.9999866223096544
554,2.676564094902038e-10,2.12476037977702e-07,0.00942731851501568,1.00063680208868
555,2.480830198226798e-10,1.9494070205310058e-07,0.008590182057429074,1.0008493086702255
556,2.3000382867361644e-10,1.789078838264663e-07,0.007825813843330722,1.0006179217530404
557,2.13300113128454e-10,1.642442234708289e-07,0.007128232532041548,0.9999368871030455
558,1.9786294398811155e-10,1.5082859735934367e-07,0.006491889236537981,0.9988009579851964
559,1.8359234884161294e-10,1.38550959567777e-07,0.005911645662807446,0.9972054372597656
560,1.7039654908361997e-10,1.2731129637166036e-07,0.005382751836781835,0.9951462198243538
561,1.5819126413390147e-10,1.170186824014556e-07,0.0049008237288647545,0.9926198350512532
562,1.4689907674929175e-10,1.075904282874958e-07,0.004461821037877272,0.9896234888401786
563,1.36448853891193e-10,9.895131067120661e-08,0.004062025351498667,0.9861551048796241
564,1.2677521812878398e-10,9.103287639384032e-08,0.003698018859391893,0.9822133646868987
565,1.1781806502560478e-10,8.377281351034102e-08,0.0033666637583909705,0.9777977459780389
566,1.0952212237985988e-10,7.711438252477138e-08,0.0030650824564423637,0.972908558904978
567,1.0183654757105531e-10,7.100590191420368e-08,0.0027906386533548813,0.9675469796893381
568,9.471455961142748e-11,6.540028260867222e-08,0.002540919351652725,0.9617150811805903
569,8.81131028136536e-11,6.025460663299535e-08,0.00231371782970609,0.9554158598717114
570,8.1992539269652e-11,5.552974559879218e-08,0.0021070175915467388,0.9486532589182918
571,7.631636759189262e-11,5.119001516764534e-08,0.0019189772930601917,0.9414321867276735
572,7.105096560106329e-11,4.7202861994462706e-08,0.00174791663226082,0.9337585307132739
573,6.61653548545486e-11,4.353858000832467e-08,0.0015923031817887485,0.9256391658458503
574,6.163098510105123e-11,4.01700532006605e-08,0.0014507401343155067,0.9170819576778574
575,5.742153691978762e-11,3.707252237127415e-08,0.0013219549259191653,0.9080957595689605
576,5.3512740959624613e-11,3.4223373534814027e-08,0.001204788698428177,0.8986904038995425
577,4.9882212335941496e-11,3.160194591677634e-08,0.001098186558989046,0.8888766871240608
578,4.650929887221262e-11,2.9189357671693288e-08,0.0010011885934723616,0.8786663485862791
579,4.337494199060654e-11,2.696834763918726e-08,0.0009129215895970328,0.8680720430927458
580,4.04615491624071e-11,2.4923131618160343e-08,0.0008325914256555521,0.8571073073180445
581,3.775287692579426e-11,2.3039271787479724e-08,0.0007594760813132641,0.8457865201939837
582,3.523392356641391e-11,2.1303558034771978e-08,0.0006929192280052759,0.8341248575134702
583,3.289083063603531e-11,1.970390007491902e-08,0.0006323243578553353,0.8221382410568616
584,3.071079255720792e-11,1.8229229347863475e-08,0.0005771494117003213,0.809843282622492
585,2.8681973627843206e-11,1.6869409782656122e-08,0.0005269018686437513,0.7972572234123574
586,2.679343179971115e-11,1.56151566023544e-08,0.0004811342615190825,0.7843978692871457
587,2.5035048659474318e-11,1.4457962423421056e-08,0.00043944008466490793,0.7712835224606039
588,2.3397465090603013e-11,1.339002997453141e-08,0.000401450062458507,0.7579329102504317
589,2.1872022139794857e-11,1.2404210823967652e-08,0.0003668287490870561,0.7443651115406204
590,2.045070665273088e-11,1.1493949562767073e-08,0.00033527143203131876,0.7305994816374615
591,1.9126101281549062e-11,1.0653232943114994e-08,0.0003065013136747677,0.7166555762180158
592,1.789133850063138e-11,9.876543518720005e-09,0.0002802669473166994,0.7025530750752508
593,1.674005829846352e-11,9.158817376561363e-09,0.0002563399056508572,0.6883117063584284
594,1.5666369241756734e-11,8.495405587937595e-09,0.00023451266146379886,0.6739511719907508
595,1.4664812633930988e-11,7.882039041558371e-09,0.00021459666190617115,0.659491074919453
596,1.3730329513695827e-11,7.314796352893676e-09,0.00019642057919273936,0.6449508488169651
597,1.2858230261031729e-11,6.790074572444648e-09,0.00017982872199381834,0.6303496908065148
598,1.204416659755335e-11,6.304562441332285e-09,0.00016467959309288873,0.6157064977326121
599,1.1284105786200188e-11,5.8552159658760075e-09,0.0001508445801050823,0.6010398064374737
600,1.057430685160564e-11,5.439236103900584e-09,0.00013820676718219728,0.586367738439843
601,9.911298657474297e-12,5.0540483745734025e-09,0.00012665985667578816,0.5717079493443736
602,9.291859690984355e-12,4.6972842208401664e-09,0.00011610719069486808,0.5570775832388272
603,8.712999416739797e-12,4.366763969161533e-09,0.00010646086338328057,0.5424932322644699
604,8.171941074226148e-12,4.060481245419244e-09,9.76409155584841e-05,0.5279709014732602
605,7.666105803177909e-12,3.7765887186968015e-09,8.957460410286549e-05,0.5135259790150905
606,7.1930979908221425e-12,3.5133850562771842e-09,8.219573918531695e-05,0.4991732116304522
607,6.750691743705811e-12,3.2693029837512673e-09,7.544408301908972e-05,0.4849266853595718
608,6.3368183948166394e-12,3.0428983537002008e-09,6.926480443613343e-05,0.47079981131897625
609,5.949554964026295e-12,2.832840135099578e-09,6.360798408235277e-05,0.4568053163415042
610,5.587113496589122e-12,2.6379012434702616e-09,5.8428165516307654e-05,0.44295523822641164
611,5.247831210566867e-12,2.4569501389565332e-09,5.368394792956614e-05,0.4292609253029302
612,4.930161389671309e-12,2.2889431260047857e-09,4.933761660359263e-05,0.41573303997367134
613,4.632664963166008e-12,2.132917294217399e-09,4.5354807578998696e-05,0.4023815658739509
614,4.354002719189574e-12,1.987984045314415e-09,4.170420334114621e-05,0.3892158182592944
615,4.0929281021862344e-12,1.8533231560075058e-09,3.835725662435708e-05,0.3762444572162483
616,3.848280549097896e-12,1.7281773310179709e-09,3.5287939707842596e-05,0.3634755032809817
617,3.618979322606646e-12,1.611847204496311e-09,3.247251682239102e-05,0.350916355045871
618,3.4040178030547928e-12,1.503686751762998e-09,2.9889337510032788e-05,0.33857380833605083
619,3.2024582037286833e-12,1.4030990766208498e-09,2.7518648981323583e-05,0.32645407654561365
620,3.0134266770029368e-12,1.3095325425215268e-09,2.5342425698496397e-05,0.31456281173637796
621,2.8361087814192647e-12,1.222477218627393e-09,2.334421457915349e-05,0.30290512612057086
622,2.669745282142268e-12,1.1414616143232314e-09,2.150899436603355e-05,0.2914856135721379
623,2.51362825940878e-12,1.0660496780197e-09,1.982304784508249e-05,0.2803083708391598
624,2.367097501583736e-12,9.958380381757565e-10,1.8273845717909528e-05,0.26937701816172893
625,2.229537161272444e-12,9.304534663660229e-10,1.6849941046899586e-05,0.25869471903512264
626,2.100372654623804e-12,8.695505439506871e-10,1.554087329286991e-05,0.24826419889667953
627,1.979067785510868e-12,8.128095154840022e-10,1.4337081057189998e-05,0.23808776255596203
628,1.865122077699803e-12,7.599343134365265e-10,1.3229822723621983e-05,0.22816731023093476
629,1.758068299429717e-12,7.106507401195287e-10,1.221110427060871e-05,0.21850435209738006
630,1.6574701660316703e-12,6.647047938976794e-10,1.1273613593069873e-05,0.2091000213039117
631,1.5629202073251115e-12,6.218611278697083e-10,1.0410660734643173e-05,0.19995508544992205
632,1.4740377875506327e-12,5.819016301944546e-10,9.61612348733515e-06,0.19106995656788647
633,1.3904672665387312e-12,5.446241161513305e-10,8.884397866277391e-06,0.18244469969368066
634,1.311876291679257e-12,5.098411228563114e-10,8.21035301322174e-06,0.17407904014817327
635,1.2379542110535778e-12,4.773787983151693e-10,7.589290124008658e-06,0.16597236968940235
636,1.1684105988258927e-12,4.470758771902128e-10,7.016905032913082e-06,0.1581237517262213
637,1.1029738846663808e-12,4.1878273629227336e-10,6.489254120893658e-06,0.15053192581075134
638,1.0413900796024686e-12,3.923605233898611e-10,6.002723245669366e-06,0.14319531164739405
639,9.834215912693869e-13,3.6768035345878446e-10,5.553999419542477e-06,0.1361120128700713
640,9.288461220606719e-13,3.446225669808985e-10,5.140044986241911e-06,0.12927982084627745
641,8.77455644168191e-13,3.2307604534517543e-10,4.75807407103653e-06,0.12269621876615763
642,8.290554459518069e-13,3.0293757881086295e-10,4.405531099182992e-06,0.11635838626712483
643,7.834632444946498e-13,2.8411128286470733e-10,4.080071196639151e-06,0.11026320482965445
644,7.405083595837018e-13,2.665080591451234e-10,3.77954230406951e-06,0.10440726415823119
645,7.000309447094151e-13,2.500450974181456e-10,3.5019688506692585e-06,0.09878686973356061
646,6.618812710051628e-13,2.346454153760689e-10,3.2455368483828927e-06,0.09339805168898792
647,6.259190603491276e-13,2.20237433291497e-10,3.008580279833867e-06,0.08823657512651904
648,5.920128641300509e-13,2.0675458079972046e-10,2.7895686648353708e-06,0.08329795194716151
649,5.600394844359092e-13,1.9413493330227912e-10,2.587095700831773e-06,0.07857745422774286
650,5.298834346623952e-13,1.8232087568648848e-10,2.399868882126562e-06,0.07407012913324092
651,5.014364367582823e-13,1.7125879124062717e-10,2.2267000113781154e-06,0.06977081531135958
652,4.745969525277017e-13,1.6089877381435015e-10,2.066496524672475e-06,0.06567416067587172
653,4.4926974659765793e-13,1.5119436142956937e-10,1.9182535585863266e-06,0.06177464144832161
654,4.2536547883271087e-13,1.4210228969002712e-10,1.7810466941034527e-06,0.05806658229508723
655,4.028003241395544e-13,1.3358226346900488e-10,1.6540253181038423e-06,0.054544177369397116
656,3.814956177530297e-13,1.2559674547505715e-10,1.5364065484625643e-06,0.05120151204630695
657,3.613775242326395e-13,1.1811076040635924e-10,1.427469673626903e-06,0.04803258512330308
658,3.423767285260397e-13,1.1109171350582927e-10,1.3265510619280175e-06,0.04503133125023708
659,3.2442814757392577e-13,1.0450922242263364e-10,1.2330394998720064e-06,0.042191643349701595
660,3.074706610398131e-13,9.833496137146308e-11,1.1463719222793e-06,0.03950739479237508
661,2.914468598493752e-13,9.25425166598709e-11,1.0660295004360512e-06,0.03697246110092453
662,2.7630281131763604e-13,8.710725272647376e-11,9.91534057417163e-07,0.034580740970016906
663,2.619878397290192e-13,8.200618789956556e-11,9.224447824646039e-07,0.032326176408218825
664,2.4845432131572416e-13,7.721787914697047e-11,8.583552187828035e-07,0.03020277182914457
665,2.35657492654309e-13,7.272231514447672e-11,7.988905013675348e-07,0.028204611943346666
666,2.2355527156948773e-13,6.850081704209496e-11,7.437048235361056e-07,0.026325878328207673
667,2.121080896982039e-13,6.453594635520032e-11,6.924791126938814e-07,0.024560864579697743
668,2.01278735926317e-13,6.081141945164582e-11,6.449188975723388e-07,0.022903989976485673
669,1.910322099654645e-13,5.731202814644167e-11,6.007523507212764e-07,0.02134981161286818
670,1.8133558538864576e-13,5.4023565952948223e-11,5.597284914479586e-07,0.019893034981688925
671,1.7215788149053526e-13,5.093275957389502e-11,5.216155356797355e-07,0.018528523011376256
672,1.634699433825595e-13,4.8027205247241904e-11,4.86199380397015e-07,0.017251303582037306
673,1.5524432977354867e-13,4.5295309591093386e-11,4.532822113496704e-07,0.016056575563957832
674,1.4745520792479345e-13,4.272623461879336e-11,4.226812237419322e-07,0.014939713437672286
675,1.400782553034616e-13,4.03098466201531e-11,3.942274464570722e-07,0.01389627056794607
676,1.3309056749109608e-13,3.8036668627652585e-11,3.67764661201284e-07,0.012921981214540322
677,1.2647057193429507e-13,3.589783620755936e-11,3.431484086833308e-07,0.01201276137060625
678,1.2019794715287774e-13,3.388505633540483e-11,3.2024507461898817e-07,0.011164708525118507
679,1.1425354704709845e-13,3.199056913320956e-11,2.989310489630478e-07,0.010374100449090611
680,1.0861932996986775e-13,3.020711226245854e-11,2.790919523317306e-07,0.00963739310664293
681,1.0327829225258082e-13,2.8527887782127602e-11,2.606219240896952e-07,0.008951217791549797
682,9.821440589424581e-14,2.694653129521072e-11,2.4342296704277755e-07,0.00831237758792533
683,9.341256014323178e-14,2.5457083220256016e-11,2.2740434410402406e-07,0.007717843250468294
684,8.885850671914575e-14,2.4053962036476807e-11,2.1248202269014533e-07,0.007164748595409865
685,8.45388084393566e-14,2.2731939362159337e-11,1.9857816296148626e-07,0.00665038548823315
686,8.044079103043756e-14,2.1486116736377625e-11,1.856206463439184e-07,0.006172198508555713
687,7.65524979195202e-14,2.0311903983552366e-11,1.7354264106841282e-07,0.005727779366494245
688,7.286264781419598e-14,1.9204999049189364e-11,1.6228220173597437e-07,0.005314861138518484
689,6.936059489235606e-14,1.8161369203272356e-11,1.5178190016426008e-07,0.004931312384406885
690,6.603629143521883e-14,1.7177233515306278e-11,1.4198848499961653e-07,0.004575131200556952
691,6.288025274781349e-14,1.6249046511974665e-11,1.328525677864033e-07,0.004244439258686708
692,5.988352422149402e-14,1.53734829348124e-11,1.2432833337585646e-07,0.0039374758729682205
693,5.703765040263916e-14,1.4547423521255034e-11,1.1637327273106908e-07,0.003652592132929899
694,5.4334645940609916e-14,1.376794173794468e-11,1.0894793634420201e-07,0.0033882451340915493
695,5.176696829637359e-14,1.3032291400277673e-11,1.020157066281761e-07,0.0031429923332954115
696,4.932749210095352e-14,1.2337895116909318e-11,9.554258777891699e-08,0.0029154860510797976
697,4.700948506009852e-14,1.1682333502308546e-11,8.949701172680776e-08,0.0027044681392266786
698,4.480658530830683e-14,1.1063335104513906e-11,8.384965890835389e-08,0.002508764827792618
699,4.2712780121640736e-14,1.0478766998998066e-11,7.857329269199865e-08,0.0023272817625040287
